{
  "project_info": {
    "project_number": "927482561496",
    "firebase_url": "https://uzmobile-ussd-f7348.firebaseio.com",
    "project_id": "uzmobile-ussd-f7348",
    "storage_bucket": "uzmobile-ussd-f7348.appspot.com"
  },
  "client": [
    {
      "client_info": {
        "mobilesdk_app_id": "1:927482561496:android:17e227b1ee3b0de345e8ad",
        "android_client_info": {
          "package_name": "uz.dilshodjon216.uzmobileussd"
        }
      },
      "oauth_client": [
        {
          "client_id": "927482561496-id18v34u6t2gg87b9hp965m9orqhak03.apps.googleusercontent.com",
          "client_type": 3
        }
      ],
      "api_key": [
        {
          "current_key": "AIzaSyBmVoZxWL4mdTCnzjsVJSjYv1WABamID5w"
        }
      ],
      "services": {
        "appinvite_service": {
          "other_platform_oauth_client": [
            {
              "client_id": "927482561496-id18v34u6t2gg87b9hp965m9orqhak03.apps.googleusercontent.com",
              "client_type": 3
            }
          ]
        }
      }
    }
  ],
  "configuration_version": "1"
}